<svg width="32" height="32" viewBox="0 0 32 32" fill="none" xmlns="http://www.w3.org/2000/svg">
<path d="M25.1667 10.2793C24.4925 10.5799 23.7682 10.7831 23.0068 10.8749C23.7924 10.4018 24.3802 9.65718 24.6604 8.77997C23.9223 9.22122 23.1145 9.53181 22.2721 9.69824C21.7055 9.08947 20.9552 8.68597 20.1375 8.55038C19.3198 8.41479 18.4805 8.5547 17.7499 8.94839C17.0193 9.34208 16.4382 9.96752 16.097 10.7276C15.7558 11.4877 15.6734 12.3399 15.8627 13.1519C14.3671 13.0764 12.904 12.6851 11.5684 12.0036C10.2328 11.3221 9.05442 10.3655 8.10986 9.19603C7.78689 9.75675 7.60119 10.4069 7.60119 11.0992C7.60083 11.7225 7.75333 12.3362 8.04517 12.886C8.33701 13.4357 8.75916 13.9045 9.27417 14.2506C8.6769 14.2315 8.0928 14.0691 7.5705 13.7768V13.8256C7.57044 14.6998 7.87089 15.5471 8.42087 16.2237C8.97084 16.9003 9.73647 17.3646 10.5878 17.5377C10.0338 17.6886 9.45288 17.7109 8.88903 17.6027C9.12923 18.3549 9.59713 19.0127 10.2272 19.4839C10.8573 19.9551 11.618 20.2163 12.4029 20.2308C11.0705 21.2835 9.42506 21.8545 7.73118 21.852C7.43113 21.8521 7.13133 21.8344 6.83333 21.7992C8.55271 22.9118 10.5542 23.5023 12.5983 23.5C19.5179 23.5 23.3007 17.7319 23.3007 12.7294C23.3007 12.5668 23.2967 12.4027 23.2894 12.2402C24.0252 11.7046 24.6603 11.0414 25.165 10.2817L25.1667 10.2793Z" fill="#0071C5"/>
<rect x="0.5" y="0.5" width="31" height="31" rx="15.5" stroke="#0071C5"/>
</svg>
